caravel-soc_fpga-lab/fsic-sim/fsic_fpga/rtl/user/testbench/tc/xsim_6775.backup.log
#-----------------------------------------------------------
# xsim v2022.1 (64-bit)
# SW Build 3526262 on Mon Apr 18 15:47:01 MDT 2022
# IP Build 3524634 on Mon Apr 18 20:55:01 MDT 2022
# Start of session at: Wed Mar 13 07:20:23 2024
# Process ID: 6775
# Current directory: /home/ubuntu/caravel-soc_fpga-lab/fsic-sim/fsic_fpga/rtl/user/testbench/tc
# Command line: xsim -mode tcl -source {xsim.dir/tb_fsic_xelab/xsim_script.tcl}
# Log file: /home/ubuntu/caravel-soc_fpga-lab/fsic-sim/fsic_fpga/rtl/user/testbench/tc/xsim.log
# Journal file: /home/ubuntu/caravel-soc_fpga-lab/fsic-sim/fsic_fpga/rtl/user/testbench/tc/xsim.jou
# Running On: ubuntu2004, OS: Linux, CPU Frequency: 3494.398 MHz, CPU Physical cores: 2, Host memory: 10425 MB
#-----------------------------------------------------------
source xsim.dir/tb_fsic_xelab/xsim_script.tcl
# xsim {tb_fsic_xelab} -autoloadwcfg -tclbatch {log_wave.tcl}
Time resolution is 1 ps
open_wave_config /home/ubuntu/caravel-soc_fpga-lab/fsic-sim/fsic_fpga/rtl/user/testbench/tc/tb_fsic_xelab.wcfg
WARNING: Simulation object /tb_fsic/dut/U_MPRJ_IO0/vccd1 was not found in the design.
WARNING: Simulation object /tb_fsic/dut/U_MPRJ_IO0/vccd2 was not found in the design.
WARNING: Simulation object /tb_fsic/dut/U_MPRJ_IO0/vssd1 was not found in the design.
WARNING: Simulation object /tb_fsic/dut/U_MPRJ_IO0/vssd2 was not found in the design.
WARNING: Simulation object /tb_fsic/vccd1 was not found in the design.
WARNING: Simulation object /tb_fsic/vccd2 was not found in the design.
WARNING: Simulation object /tb_fsic/vssd1 was not found in the design.
WARNING: Simulation object /tb_fsic/vssd2 was not found in the design.
WARNING: Simulation object /tb_fsic/dut/AXIS_SW0/pre_rd_ptr_reg was not found in the design.
WARNING: Simulation object /tb_fsic/dut/AXIS_SW0/as_up_tvalid_reg was not found in the design.
WARNING: Simulation object /tb_fsic/dut/AXIS_SW0/as_aa_tvalid_reg was not found in the design.
WARNING: Simulation object /tb_fsic/dut/AXIS_SW0/delaynext was not found in the design.
WARNING: Simulation object /tb_fsic/dut/AXIS_SW0/pre_m_axis was not found in the design.
WARNING: Simulation object /tb_fsic/dut/AXIS_SW0/as_up_tvalid_reg was not found in the design.
WARNING: Simulation object /tb_fsic/dut/AXIS_SW0/pre_rd_ptr_reg was not found in the design.
WARNING: Simulation object /tb_fsic/dut/AXIS_SW0/as_up_tvalid_reg was not found in the design.
WARNING: Simulation object /tb_fsic/dut/AXIS_SW0/as_aa_tvalid_reg was not found in the design.
WARNING: Simulation object /tb_fsic/dut/AXIS_SW0/delaynext was not found in the design.
WARNING: Simulation object /tb_fsic/dut/AXIS_SW0/pre_m_axis was not found in the design.
source log_wave.tcl
## log_wave -quiet -verbose -recursive *
## run all
                  40=> soc POR Assert
                  40=> fpga POR Assert
                  40=> fpga reset Assert
                  80=> soc POR De-Assert
                  80=> fpga POR De-Assert
                 120=> fpga reset De-Assert
                 185=> fpga_as_to_is_init done
                 225=> fpga_cfg_write : fpga_axi_awaddr=0000, fpga_axi_awvalid=1, fpga_axi_awready=1, fpga_axi_wdata=00000001, axi_wstrb=1, fpga_axi_wvalid=1, fpga_axi_wready=1
                 425=> soc_is_cfg_write : wbs_adr=30003000, wbs_sel=0001, wbs_wdata=00000001
                 865=> fpga_cfg_write : fpga_axi_awaddr=0000, fpga_axi_awvalid=1, fpga_axi_awready=1, fpga_axi_wdata=00000003, axi_wstrb=1, fpga_axi_wvalid=1, fpga_axi_wready=1
                1025=> soc_is_cfg_write : wbs_adr=30003000, wbs_sel=0001, wbs_wdata=00000003
test008_up_soc_cfg: soc cfg read/write test
                1265=> soc_up_cfg_write : wbs_adr=30005000, wbs_sel=1111, wbs_wdata=00000001
                1505=> soc_up_cfg_read : wbs_adr=30005000, wbs_sel=1111
                1505=> soc wishbone read data result : send soc_cfg_read_event
                1505=> soc_up_cfg_read : got soc_cfg_read_event
                1505=> test008_up_soc_cfg [PASS] cfg_read_data_expect_value=00000001, cfg_read_data_captured=00000001
-----------------
                1745=> soc_up_cfg_read : wbs_adr=30000000, wbs_sel=1111
                1745=> soc wishbone read data result : send soc_cfg_read_event
                1745=> soc_up_cfg_read : got soc_cfg_read_event
                1745=> cfg_read_data_captured=00000004 [LOOP FINISH]
                1785=> fpga_axilite_write_req in address phase = 30000010 - tvalid
                1825=> fpga_axilite_write_req in address phase = 30000010 - transfer
                1825=> fpga_axilite_write_req in data phase = 00000040 - tvalid
                1865=> fpga_axilite_write_req in data phase = 00000040 - transfer
                1865=> fpga_axilite_read_req in address req phase = 00000010 - tvalid
                1905=> fpga_axilite_read_req in address req phase = 00000010 - transfer
                1905=> test009_fpga_to_soc_cfg_read :wait for soc_to_fpga_axilite_read_cpl_event
                3305=> get soc_to_fpga_axilite_read_cpl_captured be : soc_to_fpga_axilite_read_cpl_captured =xxxxxxxx, fpga_is_as_tdata=00000040
                3305=> get soc_to_fpga_axilite_read_cpl_captured af : soc_to_fpga_axilite_read_cpl_captured =00000040, fpga_is_as_tdata=00000040
                3305=> soc_to_fpga_axilite_read_cpl_captured : send soc_to_fpga_axilite_read_cpl_event
                3305=> test009_fpga_to_soc_cfg_read : got soc_to_fpga_axilite_read_cpl_event
                3305=> test009_fpga_to_soc_cfg_read : soc_to_fpga_axilite_read_cpl_captured=00000040
                3305=> test008_data_soc_cfg [PASS] cfg_read_data_expect_value=00000040, soc_to_fpga_axilite_read_cpl_captured=00000040
-----------------
                3305=> fpga_axilite_write_req in address phase = 30000020 - tvalid
                3345=> fpga_axilite_write_req in address phase = 30000020 - transfer
                3345=> fpga_axilite_write_req in data phase = 00000000 - tvalid
                3385=> fpga_axilite_write_req in data phase = 00000000 - transfer
                3385=> fpga_axilite_read_req in address req phase = 00000020 - tvalid
                3425=> fpga_axilite_read_req in address req phase = 00000020 - transfer
                3425=> test009_fpga_to_soc_cfg_read :wait for soc_to_fpga_axilite_read_cpl_event
                4825=> get soc_to_fpga_axilite_read_cpl_captured be : soc_to_fpga_axilite_read_cpl_captured =00000040, fpga_is_as_tdata=00000000
                4825=> get soc_to_fpga_axilite_read_cpl_captured af : soc_to_fpga_axilite_read_cpl_captured =00000000, fpga_is_as_tdata=00000000
                4825=> soc_to_fpga_axilite_read_cpl_captured : send soc_to_fpga_axilite_read_cpl_event
                4825=> test009_fpga_to_soc_cfg_read : got soc_to_fpga_axilite_read_cpl_event
                4825=> test008_data_soc_cfg [PASS] soc_to_fpga_axilite_read_cpl_captured=00000000, cfg_read_data_captured=00000000
-----------------
                4825=> fpga_axilite_write_req in address phase = 30000024 - tvalid
                4865=> fpga_axilite_write_req in address phase = 30000024 - transfer
                4865=> fpga_axilite_write_req in data phase = fffffff6 - tvalid
                4905=> fpga_axilite_write_req in data phase = fffffff6 - transfer
                4905=> fpga_axilite_read_req in address req phase = 00000024 - tvalid
                4945=> fpga_axilite_read_req in address req phase = 00000024 - transfer
                4945=> test009_fpga_to_soc_cfg_read :wait for soc_to_fpga_axilite_read_cpl_event
                6345=> get soc_to_fpga_axilite_read_cpl_captured be : soc_to_fpga_axilite_read_cpl_captured =00000000, fpga_is_as_tdata=fffffff6
                6345=> get soc_to_fpga_axilite_read_cpl_captured af : soc_to_fpga_axilite_read_cpl_captured =fffffff6, fpga_is_as_tdata=fffffff6
                6345=> soc_to_fpga_axilite_read_cpl_captured : send soc_to_fpga_axilite_read_cpl_event
                6345=> test009_fpga_to_soc_cfg_read : got soc_to_fpga_axilite_read_cpl_event
                6345=> test008_data_soc_cfg [ERROR] soc_to_fpga_axilite_read_cpl_captured=fffffff6, cfg_read_data_captured=00000010
-----------------
                6345=> fpga_axilite_write_req in address phase = 30000028 - tvalid
                6385=> fpga_axilite_write_req in address phase = 30000028 - transfer
                6385=> fpga_axilite_write_req in data phase = fffffff7 - tvalid
                6425=> fpga_axilite_write_req in data phase = fffffff7 - transfer
                6425=> fpga_axilite_read_req in address req phase = 00000028 - tvalid
                6465=> fpga_axilite_read_req in address req phase = 00000028 - transfer
                6465=> test009_fpga_to_soc_cfg_read :wait for soc_to_fpga_axilite_read_cpl_event
                7865=> get soc_to_fpga_axilite_read_cpl_captured be : soc_to_fpga_axilite_read_cpl_captured =fffffff6, fpga_is_as_tdata=fffffff7
                7865=> get soc_to_fpga_axilite_read_cpl_captured af : soc_to_fpga_axilite_read_cpl_captured =fffffff7, fpga_is_as_tdata=fffffff7
                7865=> soc_to_fpga_axilite_read_cpl_captured : send soc_to_fpga_axilite_read_cpl_event
                7865=> test009_fpga_to_soc_cfg_read : got soc_to_fpga_axilite_read_cpl_event
                7865=> test008_data_soc_cfg [PASS] soc_to_fpga_axilite_read_cpl_captured=fffffff7, cfg_read_data_captured=fffffff7
-----------------
                7865=> fpga_axilite_write_req in address phase = 3000002c - tvalid
                7905=> fpga_axilite_write_req in address phase = 3000002c - transfer
                7905=> fpga_axilite_write_req in data phase = 00000017 - tvalid
                7945=> fpga_axilite_write_req in data phase = 00000017 - transfer
                7945=> fpga_axilite_read_req in address req phase = 00000011 - tvalid
                7985=> fpga_axilite_read_req in address req phase = 00000011 - transfer
                7985=> test009_fpga_to_soc_cfg_read :wait for soc_to_fpga_axilite_read_cpl_event
                9385=> get soc_to_fpga_axilite_read_cpl_captured be : soc_to_fpga_axilite_read_cpl_captured =fffffff7, fpga_is_as_tdata=xxxxxxxx
                9385=> get soc_to_fpga_axilite_read_cpl_captured af : soc_to_fpga_axilite_read_cpl_captured =xxxxxxxx, fpga_is_as_tdata=xxxxxxxx
                9385=> soc_to_fpga_axilite_read_cpl_captured : send soc_to_fpga_axilite_read_cpl_event
                9385=> test009_fpga_to_soc_cfg_read : got soc_to_fpga_axilite_read_cpl_event
                9385=> test008_data_soc_cfg [ERROR] soc_to_fpga_axilite_read_cpl_captured=xxxxxxxx, cfg_read_data_captured=00000023
-----------------
                9385=> fpga_axilite_write_req in address phase = 30000030 - tvalid
                9425=> fpga_axilite_write_req in address phase = 30000030 - transfer
                9425=> fpga_axilite_write_req in data phase = 00000038 - tvalid
                9465=> fpga_axilite_write_req in data phase = 00000038 - transfer
                9465=> fpga_axilite_read_req in address req phase = 00000030 - tvalid
                9505=> fpga_axilite_read_req in address req phase = 00000030 - transfer
                9505=> test009_fpga_to_soc_cfg_read :wait for soc_to_fpga_axilite_read_cpl_event
               10905=> get soc_to_fpga_axilite_read_cpl_captured be : soc_to_fpga_axilite_read_cpl_captured =xxxxxxxx, fpga_is_as_tdata=00000038
               10905=> get soc_to_fpga_axilite_read_cpl_captured af : soc_to_fpga_axilite_read_cpl_captured =00000038, fpga_is_as_tdata=00000038
               10905=> soc_to_fpga_axilite_read_cpl_captured : send soc_to_fpga_axilite_read_cpl_event
               10905=> test009_fpga_to_soc_cfg_read : got soc_to_fpga_axilite_read_cpl_event
               10905=> test008_data_soc_cfg [ERROR] soc_to_fpga_axilite_read_cpl_captured=00000038, cfg_read_data_captured=00000056
-----------------
               10905=> fpga_axilite_write_req in address phase = 30000034 - tvalid
               10945=> fpga_axilite_write_req in address phase = 30000034 - transfer
               10945=> fpga_axilite_write_req in data phase = 0000003f - tvalid
               10985=> fpga_axilite_write_req in data phase = 0000003f - transfer
               10985=> fpga_axilite_read_req in address req phase = 00000034 - tvalid
               11025=> fpga_axilite_read_req in address req phase = 00000034 - transfer
               11025=> test009_fpga_to_soc_cfg_read :wait for soc_to_fpga_axilite_read_cpl_event
               12425=> get soc_to_fpga_axilite_read_cpl_captured be : soc_to_fpga_axilite_read_cpl_captured =00000038, fpga_is_as_tdata=0000003f
               12425=> get soc_to_fpga_axilite_read_cpl_captured af : soc_to_fpga_axilite_read_cpl_captured =0000003f, fpga_is_as_tdata=0000003f
               12425=> soc_to_fpga_axilite_read_cpl_captured : send soc_to_fpga_axilite_read_cpl_event
               12425=> test009_fpga_to_soc_cfg_read : got soc_to_fpga_axilite_read_cpl_event
               12425=> test008_data_soc_cfg [ERROR] soc_to_fpga_axilite_read_cpl_captured=0000003f, cfg_read_data_captured=00000063
-----------------
               12425=> fpga_axilite_write_req in address phase = 30000038 - tvalid
               12465=> fpga_axilite_write_req in address phase = 30000038 - transfer
               12465=> fpga_axilite_write_req in data phase = 00000038 - tvalid
               12505=> fpga_axilite_write_req in data phase = 00000038 - transfer
               12505=> fpga_axilite_read_req in address req phase = 00000038 - tvalid
               12545=> fpga_axilite_read_req in address req phase = 00000038 - transfer
               12545=> test009_fpga_to_soc_cfg_read :wait for soc_to_fpga_axilite_read_cpl_event
               13945=> get soc_to_fpga_axilite_read_cpl_captured be : soc_to_fpga_axilite_read_cpl_captured =0000003f, fpga_is_as_tdata=00000038
               13945=> get soc_to_fpga_axilite_read_cpl_captured af : soc_to_fpga_axilite_read_cpl_captured =00000038, fpga_is_as_tdata=00000038
               13945=> soc_to_fpga_axilite_read_cpl_captured : send soc_to_fpga_axilite_read_cpl_event
               13945=> test009_fpga_to_soc_cfg_read : got soc_to_fpga_axilite_read_cpl_event
               13945=> test008_data_soc_cfg [ERROR] soc_to_fpga_axilite_read_cpl_captured=00000038, cfg_read_data_captured=00000056
-----------------
               13945=> fpga_axilite_write_req in address phase = 3000003c - tvalid
               13985=> fpga_axilite_write_req in address phase = 3000003c - transfer
               13985=> fpga_axilite_write_req in data phase = 00000017 - tvalid
               14025=> fpga_axilite_write_req in data phase = 00000017 - transfer
               14025=> fpga_axilite_read_req in address req phase = 0000003c - tvalid
               14065=> fpga_axilite_read_req in address req phase = 0000003c - transfer
               14065=> test009_fpga_to_soc_cfg_read :wait for soc_to_fpga_axilite_read_cpl_event
               15465=> get soc_to_fpga_axilite_read_cpl_captured be : soc_to_fpga_axilite_read_cpl_captured =00000038, fpga_is_as_tdata=00000017
               15465=> get soc_to_fpga_axilite_read_cpl_captured af : soc_to_fpga_axilite_read_cpl_captured =00000017, fpga_is_as_tdata=00000017
               15465=> soc_to_fpga_axilite_read_cpl_captured : send soc_to_fpga_axilite_read_cpl_event
               15465=> test009_fpga_to_soc_cfg_read : got soc_to_fpga_axilite_read_cpl_event
               15465=> test008_data_soc_cfg [ERROR] soc_to_fpga_axilite_read_cpl_captured=00000017, cfg_read_data_captured=00000023
-----------------
               15465=> fpga_axilite_write_req in address phase = 30000040 - tvalid
               15505=> fpga_axilite_write_req in address phase = 30000040 - transfer
               15505=> fpga_axilite_write_req in data phase = fffffff7 - tvalid
               15545=> fpga_axilite_write_req in data phase = fffffff7 - transfer
               15545=> fpga_axilite_read_req in address req phase = 00000040 - tvalid
               15585=> fpga_axilite_read_req in address req phase = 00000040 - transfer
               15585=> test009_fpga_to_soc_cfg_read :wait for soc_to_fpga_axilite_read_cpl_event
               16985=> get soc_to_fpga_axilite_read_cpl_captured be : soc_to_fpga_axilite_read_cpl_captured =00000017, fpga_is_as_tdata=fffffff7
               16985=> get soc_to_fpga_axilite_read_cpl_captured af : soc_to_fpga_axilite_read_cpl_captured =fffffff7, fpga_is_as_tdata=fffffff7
               16985=> soc_to_fpga_axilite_read_cpl_captured : send soc_to_fpga_axilite_read_cpl_event
               16985=> test009_fpga_to_soc_cfg_read : got soc_to_fpga_axilite_read_cpl_event
               16985=> test008_data_soc_cfg [ERROR] soc_to_fpga_axilite_read_cpl_captured=fffffff7, cfg_read_data_captured=00000009
-----------------
               16985=> fpga_axilite_write_req in address phase = 30000044 - tvalid
               17025=> fpga_axilite_write_req in address phase = 30000044 - transfer
               17025=> fpga_axilite_write_req in data phase = fffffff6 - tvalid
               17065=> fpga_axilite_write_req in data phase = fffffff6 - transfer
               17065=> fpga_axilite_read_req in address req phase = 00000044 - tvalid
               17105=> fpga_axilite_read_req in address req phase = 00000044 - transfer
               17105=> test009_fpga_to_soc_cfg_read :wait for soc_to_fpga_axilite_read_cpl_event
               18505=> get soc_to_fpga_axilite_read_cpl_captured be : soc_to_fpga_axilite_read_cpl_captured =fffffff7, fpga_is_as_tdata=fffffff6
               18505=> get soc_to_fpga_axilite_read_cpl_captured af : soc_to_fpga_axilite_read_cpl_captured =fffffff6, fpga_is_as_tdata=fffffff6
               18505=> soc_to_fpga_axilite_read_cpl_captured : send soc_to_fpga_axilite_read_cpl_event
               18505=> test009_fpga_to_soc_cfg_read : got soc_to_fpga_axilite_read_cpl_event
               18505=> test008_data_soc_cfg [ERROR] soc_to_fpga_axilite_read_cpl_captured=fffffff6, cfg_read_data_captured=00000010
-----------------
               18505=> fpga_axilite_write_req in address phase = 30000048 - tvalid
               18545=> fpga_axilite_write_req in address phase = 30000048 - transfer
               18545=> fpga_axilite_write_req in data phase = 00000000 - tvalid
               18585=> fpga_axilite_write_req in data phase = 00000000 - transfer
               18585=> fpga_axilite_read_req in address req phase = 00000048 - tvalid
               18625=> fpga_axilite_read_req in address req phase = 00000048 - transfer
               18625=> test009_fpga_to_soc_cfg_read :wait for soc_to_fpga_axilite_read_cpl_event
               20025=> get soc_to_fpga_axilite_read_cpl_captured be : soc_to_fpga_axilite_read_cpl_captured =fffffff6, fpga_is_as_tdata=00000000
               20025=> get soc_to_fpga_axilite_read_cpl_captured af : soc_to_fpga_axilite_read_cpl_captured =00000000, fpga_is_as_tdata=00000000
               20025=> soc_to_fpga_axilite_read_cpl_captured : send soc_to_fpga_axilite_read_cpl_event
               20025=> test009_fpga_to_soc_cfg_read : got soc_to_fpga_axilite_read_cpl_event
               20025=> test008_data_soc_cfg [PASS] soc_to_fpga_axilite_read_cpl_captured=00000000, cfg_read_data_captured=00000000
-----------------
test008_start_stream_data: soc cfg read/write test
               20345=> soc_up_cfg_write : wbs_adr=30000000, wbs_sel=1111, wbs_wdata=00000001
               20585=> soc_up_cfg_read : wbs_adr=30000000, wbs_sel=1111
               20585=> soc wishbone read data result : send soc_cfg_read_event
               20585=> soc_up_cfg_read : got soc_cfg_read_event
               20585=> test008_start_stream_data [PASS] cfg_read_data_expect_value=00000001, cfg_read_data_captured=00000001
-----------------
-----------------
test008_up_soc_cfg: soc cfg read/write test - end
--------------------------------------------------------------------
               20705=> fpga_as_to_is_init done
               20745=> fpga_cfg_write : fpga_axi_awaddr=0000, fpga_axi_awvalid=1, fpga_axi_awready=1, fpga_axi_wdata=00000001, axi_wstrb=1, fpga_axi_wvalid=1, fpga_axi_wready=1
               20945=> soc_is_cfg_write : wbs_adr=30003000, wbs_sel=0001, wbs_wdata=00000001
               20945=> soc rxen_ctl=1
               20945=> fpga rxen_ctl=1
               21385=> fpga_cfg_write : fpga_axi_awaddr=0000, fpga_axi_awvalid=1, fpga_axi_awready=1, fpga_axi_wdata=00000003, axi_wstrb=1, fpga_axi_wvalid=1, fpga_axi_wready=1
               21545=> soc_is_cfg_write : wbs_adr=30003000, wbs_sel=0001, wbs_wdata=00000003
               21545=> soc txen_ctl=1
               21545=> fpga txen_ctl=1
test008: fpga_axis_req - frame no x
               22065=> fpga_axis_req send data, fpga_as_is_tupsb = 000xx, fpga_as_is_tstrb = 0000, fpga_as_is_tkeep = 0000, fpga_as_is_tlast = x, fpga_as_is_tdata = 00000001
               22105=> fpga_axis_req send data, fpga_as_is_tupsb = 000xx, fpga_as_is_tstrb = 0000, fpga_as_is_tkeep = 0000, fpga_as_is_tlast = x, fpga_as_is_tdata = 00000002
               22145=> fpga_axis_req send data, fpga_as_is_tupsb = 000xx, fpga_as_is_tstrb = 0000, fpga_as_is_tkeep = 0000, fpga_as_is_tlast = x, fpga_as_is_tdata = 00000003
               22185=> fpga_axis_req send data, fpga_as_is_tupsb = 000xx, fpga_as_is_tstrb = 0000, fpga_as_is_tkeep = 0000, fpga_as_is_tlast = x, fpga_as_is_tdata = 00000004
               22225=> fpga_axis_req send data, fpga_as_is_tupsb = 000xx, fpga_as_is_tstrb = 0000, fpga_as_is_tkeep = 0000, fpga_as_is_tlast = x, fpga_as_is_tdata = 00000005
               22265=> fpga_axis_req send data, fpga_as_is_tupsb = 000xx, fpga_as_is_tstrb = 0000, fpga_as_is_tkeep = 0000, fpga_as_is_tlast = x, fpga_as_is_tdata = 00000006
               22305=> fpga_axis_req send data, fpga_as_is_tupsb = 000xx, fpga_as_is_tstrb = 0000, fpga_as_is_tkeep = 0000, fpga_as_is_tlast = x, fpga_as_is_tdata = 00000007
               22345=> fpga_axis_req send data, fpga_as_is_tupsb = 000xx, fpga_as_is_tstrb = 0000, fpga_as_is_tkeep = 0000, fpga_as_is_tlast = x, fpga_as_is_tdata = 00000008
               22385=> fpga_axis_req send data, fpga_as_is_tupsb = 000xx, fpga_as_is_tstrb = 0000, fpga_as_is_tkeep = 0000, fpga_as_is_tlast = x, fpga_as_is_tdata = 00000009
               22425=> fpga_axis_req send data, fpga_as_is_tupsb = 000xx, fpga_as_is_tstrb = 0000, fpga_as_is_tkeep = 0000, fpga_as_is_tlast = x, fpga_as_is_tdata = 0000000a
               22465=> fpga_axis_req send data, fpga_as_is_tupsb = 000xx, fpga_as_is_tstrb = 0000, fpga_as_is_tkeep = 0000, fpga_as_is_tlast = x, fpga_as_is_tdata = 0000000b
               22505=> fpga_axis_req send data, fpga_as_is_tupsb = 000xx, fpga_as_is_tstrb = 0000, fpga_as_is_tkeep = 0000, fpga_as_is_tlast = x, fpga_as_is_tdata = 0000000c
               22545=> fpga_axis_req send data, fpga_as_is_tupsb = 000xx, fpga_as_is_tstrb = 0000, fpga_as_is_tkeep = 0000, fpga_as_is_tlast = x, fpga_as_is_tdata = 0000000d
               22585=> fpga_axis_req send data, fpga_as_is_tupsb = 000xx, fpga_as_is_tstrb = 0000, fpga_as_is_tkeep = 0000, fpga_as_is_tlast = x, fpga_as_is_tdata = 0000000e
               22625=> fpga_axis_req send data, fpga_as_is_tupsb = 000xx, fpga_as_is_tstrb = 0000, fpga_as_is_tkeep = 0000, fpga_as_is_tlast = x, fpga_as_is_tdata = 0000000f
               22665=> fpga_axis_req send data, fpga_as_is_tupsb = 000xx, fpga_as_is_tstrb = 0000, fpga_as_is_tkeep = 0000, fpga_as_is_tlast = x, fpga_as_is_tdata = 00000010
               22705=> fpga_axis_req send data, fpga_as_is_tupsb = 000xx, fpga_as_is_tstrb = 0000, fpga_as_is_tkeep = 0000, fpga_as_is_tlast = x, fpga_as_is_tdata = 00000011
               22985=> get soc_to_fpga_axis be : soc_to_fpga_axis_captured_count=         0,  soc_to_fpga_axis_captured[         0] =xxxxxxxxxxxx, fpga_is_as_tupsb=00, fpga_is_as_tstrb=0, fpga_is_as_tkeep=0 , fpga_is_as_tlast=0, fpga_is_as_tdata=00000000
               22985=> get soc_to_fpga_axis af : soc_to_fpga_axis_captured_count=         0,  soc_to_fpga_axis_captured[         0] =000000000000, fpga_is_as_tupsb=00, fpga_is_as_tstrb=0, fpga_is_as_tkeep=0 , fpga_is_as_tlast=0, fpga_is_as_tdata=00000000
               23545=> get soc_to_fpga_axis be : soc_to_fpga_axis_captured_count=         1,  soc_to_fpga_axis_captured[         1] =xxxxxxxxxxxx, fpga_is_as_tupsb=00, fpga_is_as_tstrb=0, fpga_is_as_tkeep=0 , fpga_is_as_tlast=0, fpga_is_as_tdata=fffffff6
               23545=> get soc_to_fpga_axis af : soc_to_fpga_axis_captured_count=         1,  soc_to_fpga_axis_captured[         1] =0000fffffff6, fpga_is_as_tupsb=00, fpga_is_as_tstrb=0, fpga_is_as_tkeep=0 , fpga_is_as_tlast=0, fpga_is_as_tdata=fffffff6
               24105=> get soc_to_fpga_axis be : soc_to_fpga_axis_captured_count=         2,  soc_to_fpga_axis_captured[         2] =xxxxxxxxxxxx, fpga_is_as_tupsb=00, fpga_is_as_tstrb=0, fpga_is_as_tkeep=0 , fpga_is_as_tlast=0, fpga_is_as_tdata=ffffffe3
               24105=> get soc_to_fpga_axis af : soc_to_fpga_axis_captured_count=         2,  soc_to_fpga_axis_captured[         2] =0000ffffffe3, fpga_is_as_tupsb=00, fpga_is_as_tstrb=0, fpga_is_as_tkeep=0 , fpga_is_as_tlast=0, fpga_is_as_tdata=ffffffe3
               24665=> get soc_to_fpga_axis be : soc_to_fpga_axis_captured_count=         3,  soc_to_fpga_axis_captured[         3] =xxxxxxxxxxxx, fpga_is_as_tupsb=00, fpga_is_as_tstrb=0, fpga_is_as_tkeep=0 , fpga_is_as_tlast=0, fpga_is_as_tdata=ffffffe7
               24665=> get soc_to_fpga_axis af : soc_to_fpga_axis_captured_count=         3,  soc_to_fpga_axis_captured[         3] =0000ffffffe7, fpga_is_as_tupsb=00, fpga_is_as_tstrb=0, fpga_is_as_tkeep=0 , fpga_is_as_tlast=0, fpga_is_as_tdata=ffffffe7
               25225=> get soc_to_fpga_axis be : soc_to_fpga_axis_captured_count=         4,  soc_to_fpga_axis_captured[         4] =xxxxxxxxxxxx, fpga_is_as_tupsb=00, fpga_is_as_tstrb=0, fpga_is_as_tkeep=0 , fpga_is_as_tlast=0, fpga_is_as_tdata=00000023
               25225=> get soc_to_fpga_axis af : soc_to_fpga_axis_captured_count=         4,  soc_to_fpga_axis_captured[         4] =000000000023, fpga_is_as_tupsb=00, fpga_is_as_tstrb=0, fpga_is_as_tkeep=0 , fpga_is_as_tlast=0, fpga_is_as_tdata=00000023
               25785=> get soc_to_fpga_axis be : soc_to_fpga_axis_captured_count=         5,  soc_to_fpga_axis_captured[         5] =xxxxxxxxxxxx, fpga_is_as_tupsb=00, fpga_is_as_tstrb=0, fpga_is_as_tkeep=0 , fpga_is_as_tlast=0, fpga_is_as_tdata=0000009e
               25785=> get soc_to_fpga_axis af : soc_to_fpga_axis_captured_count=         5,  soc_to_fpga_axis_captured[         5] =00000000009e, fpga_is_as_tupsb=00, fpga_is_as_tstrb=0, fpga_is_as_tkeep=0 , fpga_is_as_tlast=0, fpga_is_as_tdata=0000009e
               26345=> get soc_to_fpga_axis be : soc_to_fpga_axis_captured_count=         6,  soc_to_fpga_axis_captured[         6] =xxxxxxxxxxxx, fpga_is_as_tupsb=00, fpga_is_as_tstrb=0, fpga_is_as_tkeep=0 , fpga_is_as_tlast=0, fpga_is_as_tdata=00000151
               26345=> get soc_to_fpga_axis af : soc_to_fpga_axis_captured_count=         6,  soc_to_fpga_axis_captured[         6] =000000000151, fpga_is_as_tupsb=00, fpga_is_as_tstrb=0, fpga_is_as_tkeep=0 , fpga_is_as_tlast=0, fpga_is_as_tdata=00000151
               26905=> get soc_to_fpga_axis be : soc_to_fpga_axis_captured_count=         7,  soc_to_fpga_axis_captured[         7] =xxxxxxxxxxxx, fpga_is_as_tupsb=00, fpga_is_as_tstrb=0, fpga_is_as_tkeep=0 , fpga_is_as_tlast=0, fpga_is_as_tdata=0000021b
               26905=> get soc_to_fpga_axis af : soc_to_fpga_axis_captured_count=         7,  soc_to_fpga_axis_captured[         7] =00000000021b, fpga_is_as_tupsb=00, fpga_is_as_tstrb=0, fpga_is_as_tkeep=0 , fpga_is_as_tlast=0, fpga_is_as_tdata=0000021b
               27465=> get soc_to_fpga_axis be : soc_to_fpga_axis_captured_count=         8,  soc_to_fpga_axis_captured[         8] =xxxxxxxxxxxx, fpga_is_as_tupsb=00, fpga_is_as_tstrb=0, fpga_is_as_tkeep=0 , fpga_is_as_tlast=0, fpga_is_as_tdata=000002dc
               27465=> get soc_to_fpga_axis af : soc_to_fpga_axis_captured_count=         8,  soc_to_fpga_axis_captured[         8] =0000000002dc, fpga_is_as_tupsb=00, fpga_is_as_tstrb=0, fpga_is_as_tkeep=0 , fpga_is_as_tlast=0, fpga_is_as_tdata=000002dc
               27585=> fpga_axis_req send data, fpga_as_is_tupsb = 000xx, fpga_as_is_tstrb = 0000, fpga_as_is_tkeep = 0000, fpga_as_is_tlast = x, fpga_as_is_tdata = 00000012
               27625=> fpga_axis_req send data, fpga_as_is_tupsb = 000xx, fpga_as_is_tstrb = 0000, fpga_as_is_tkeep = 0000, fpga_as_is_tlast = x, fpga_as_is_tdata = 00000013
               27665=> fpga_axis_req send data, fpga_as_is_tupsb = 000xx, fpga_as_is_tstrb = 0000, fpga_as_is_tkeep = 0000, fpga_as_is_tlast = x, fpga_as_is_tdata = 00000014
               27705=> fpga_axis_req send data, fpga_as_is_tupsb = 000xx, fpga_as_is_tstrb = 0000, fpga_as_is_tkeep = 0000, fpga_as_is_tlast = x, fpga_as_is_tdata = 00000015
               27745=> fpga_axis_req send data, fpga_as_is_tupsb = 000xx, fpga_as_is_tstrb = 0000, fpga_as_is_tkeep = 0000, fpga_as_is_tlast = x, fpga_as_is_tdata = 00000016
               27785=> fpga_axis_req send data, fpga_as_is_tupsb = 000xx, fpga_as_is_tstrb = 0000, fpga_as_is_tkeep = 0000, fpga_as_is_tlast = x, fpga_as_is_tdata = 00000017
               27825=> fpga_axis_req send data, fpga_as_is_tupsb = 000xx, fpga_as_is_tstrb = 0000, fpga_as_is_tkeep = 0000, fpga_as_is_tlast = x, fpga_as_is_tdata = 00000018
               27865=> fpga_axis_req send data, fpga_as_is_tupsb = 000xx, fpga_as_is_tstrb = 0000, fpga_as_is_tkeep = 0000, fpga_as_is_tlast = x, fpga_as_is_tdata = 00000019
               27905=> fpga_axis_req send data, fpga_as_is_tupsb = 000xx, fpga_as_is_tstrb = 0000, fpga_as_is_tkeep = 0000, fpga_as_is_tlast = x, fpga_as_is_tdata = 0000001a
               28025=> get soc_to_fpga_axis be : soc_to_fpga_axis_captured_count=         9,  soc_to_fpga_axis_captured[         9] =xxxxxxxxxxxx, fpga_is_as_tupsb=00, fpga_is_as_tstrb=0, fpga_is_as_tkeep=0 , fpga_is_as_tlast=0, fpga_is_as_tdata=00000393
